module gitlab.com/pop-go/proto

go 1.18

require (
	github.com/grpc-ecosystem/grpc-gateway/v2 v2.11.0
	google.golang.org/genproto v0.0.0-20220725144611-272f38e5d71b
	google.golang.org/grpc v1.48.0
	google.golang.org/protobuf v1.28.0
)

require (
	github.com/golang/protobuf v1.5.2 // indirect
	golang.org/x/net v0.0.0-20220624214902-1bab6f366d9e // indirect
	golang.org/x/sys v0.0.0-20220610221304-9f5ed59c137d // indirect
	golang.org/x/text v0.3.7 // indirect
)
